…
## Import 1GK metadata (for sample-population key)

Downloded via this page: <http://www.internationalgenome.org/data>
Download link: <http://ftp.1000genomes.ebi.ac.uk/vol1/ftp/technical/working/20130606_sample_info/20130606_sample_info.xlsx>. 


```r
meta <- read_xlsx(here::here("data", "20130606_sample_info.xlsx"), sheet = "Sample Info") %>% dplyr::select(Sample, Population, Gender)
meta
```

```
## # A tibble: 3,500 x 3
##    Sample  Population Gender
##    <chr>   <chr>      <chr> 
##  1 HG00096 GBR        male  
##  2 HG00097 GBR        female
##  3 HG00098 GBR        male  
##  4 HG00099 GBR        female
##  5 HG00100 GBR        female
##  6 HG00101 GBR        male  
##  7 HG00102 GBR        female
##  8 HG00103 GBR        male  
##  9 HG00104 GBR        female
## 10 HG00105 GBR        male  
## # … with 3,490 more rows
```
…
